Get Data • psrccensus
…
      get-data.Rmd

Get ACS data

Suppose you wish to tabulate ACS one-year 2019 data for estimates of
total people by race and ethnicity, as provided in table B03002 by PSRC
counties. You would use the following function call:

get_acs_recs(geography = 'county',
             table.names = 'B03002',
             years = 2019,
             acs.type = 'acs1')

## # A tibble: 105 × 14
##    GEOID name       state variable estimate   moe label concept census_geography
##    <chr> <chr>      <chr> <chr>       <dbl> <dbl> <chr> <chr>   <chr>           
##  1 53033 King Coun… Wash… B03002_…  2252782    NA Esti… HISPAN… County          
##  2 53033 King Coun… Wash… B03002_…  2030140    NA Esti… HISPAN… County          
##  3 53033 King Coun… Wash… B03002_…  1302544  3208 Esti… HISPAN… County          
##  4 53033 King Coun… Wash… B03002_…   147822  4678 Esti… HISPAN… County          
##  5 53033 King Coun… Wash… B03002_…    13321  1990 Esti… HISPAN… County          
##  6 53033 King Coun… Wash… B03002_…   424590  7085 Esti… HISPAN… County          
##  7 53033 King Coun… Wash… B03002_…    15702  1831 Esti… HISPAN… County          
##  8 53033 King Coun… Wash… B03002_…     6574  3281 Esti… HISPAN… County          
##  9 53033 King Coun… Wash… B03002_…   119587  8804 Esti… HISPAN… County          
## 10 53033 King Coun… Wash… B03002_…     2639  1744 Esti… HISPAN… County          
## # ℹ 95 more rows
## # ℹ 5 more variables: acs_type <chr>, year <dbl>, se <dbl>, cv <dbl>,
## #   reliability <chr>
…
