Getting Started • psrccensus
…
The functions are documented on: https://psrc.github.io/psrccensus/reference/index.html

Suppose you wish to tabulate ACS one year data 2019 data for estimates of total people by race and ethnicity, as provided in table B03002 by county. You would use the following function call.

get_acs_recs(geography = 'county',
             table.names = c('B03002'),
             years=c(2019),
             acs.type = 'acs1')

## The 1-year ACS provides data for geographies with populations of 65,000 and greater.

## Getting data from the 2019 1-year ACS

## # A tibble: 105 x 11
##    GEOID name   state variable estimate   moe label    concept  census_geography
##    <chr> <chr>  <chr> <chr>       <dbl> <dbl> <chr>    <chr>    <chr>           
##  1 53033 King ~ Wash~ B03002_~  2252782    NA Estimat~ HISPANI~ County          
##  2 53033 King ~ Wash~ B03002_~  2030140    NA Estimat~ HISPANI~ County          
##  3 53033 King ~ Wash~ B03002_~  1302544  3208 Estimat~ HISPANI~ County          
##  4 53033 King ~ Wash~ B03002_~   147822  4678 Estimat~ HISPANI~ County          
##  5 53033 King ~ Wash~ B03002_~    13321  1990 Estimat~ HISPANI~ County          
##  6 53033 King ~ Wash~ B03002_~   424590  7085 Estimat~ HISPANI~ County          
##  7 53033 King ~ Wash~ B03002_~    15702  1831 Estimat~ HISPANI~ County          
##  8 53033 King ~ Wash~ B03002_~     6574  3281 Estimat~ HISPANI~ County          
##  9 53033 King ~ Wash~ B03002_~   119587  8804 Estimat~ HISPANI~ County          
## 10 53033 King ~ Wash~ B03002_~     2639  1744 Estimat~ HISPANI~ County          
## # ... with 95 more rows, and 2 more variables: acs_type <chr>, year <dbl>
…
