ACS Estimates — get_acs_recs • psrccensus
…
#> Loading ACS1 variables for 2017 from table B03002. To cache this dataset for faster access to ACS tables in the future, run this function with `cache_table = TRUE`. You only need to do this once per ACS dataset.
#> Using FIPS code '53' for state 'Washington'
#> Using FIPS code '033' for 'King County'
#> Using FIPS code '035' for 'Kitsap County'
#> Using FIPS code '053' for 'Pierce County'
#> Using FIPS code '061' for 'Snohomish County'
#> Getting data from the 2019 1-year ACS
#> The 1-year ACS provides data for geographies with populations of 65,000 and greater.
#> Loading ACS1 variables for 2019 from table B03002. To cache this dataset for faster access to ACS tables in the future, run this function with `cache_table = TRUE`. You only need to do this once per ACS dataset.
#> Using FIPS code '53' for state 'Washington'
#> Using FIPS code '033' for 'King County'
#> Using FIPS code '035' for 'Kitsap County'
#> Using FIPS code '053' for 'Pierce County'
#> Using FIPS code '061' for 'Snohomish County'
#> # A tibble: 210 × 14
#>    GEOID name       state variable estimate   moe label concept census_geography
#>    <chr> <chr>      <chr> <chr>       <dbl> <dbl> <chr> <chr>   <chr>           
#>  1 53033 King Coun… Wash… B03002_…  2188649    NA Esti… HISPAN… County          
#>  2 53033 King Coun… Wash… B03002_…  1976237    NA Esti… HISPAN… County          
#>  3 53033 King Coun… Wash… B03002_…  1309568  1385 Esti… HISPAN… County          
#>  4 53033 King Coun… Wash… B03002_…   133498  5330 Esti… HISPAN… County          
#>  5 53033 King Coun… Wash… B03002_…     8058  1683 Esti… HISPAN… County          
#>  6 53033 King Coun… Wash… B03002_…   379302  5696 Esti… HISPAN… County          
#>  7 53033 King Coun… Wash… B03002_…    16765  1987 Esti… HISPAN… County          
#>  8 53033 King Coun… Wash… B03002_…     7055  2296 Esti… HISPAN… County          
#>  9 53033 King Coun… Wash… B03002_…   121991  8954 Esti… HISPAN… County          
#> 10 53033 King Coun… Wash… B03002_…     3853  1480 Esti… HISPAN… County          
#> # ℹ 200 more rows
#> # ℹ 5 more variables: acs_type <chr>, year <dbl>, se <dbl>, cv <dbl>,
#> #   reliability <chr>
…
