Decennial Estimates — get_decennial_recs • psrccensus
…
#> Using FIPS code '53' for state 'WA'
#> Using FIPS code '033' for 'King County'
#> Using FIPS code '035' for 'Kitsap County'
#> Using FIPS code '053' for 'Pierce County'
#> Using FIPS code '061' for 'Snohomish County'
#> Using Census Summary File 1
#> Getting data from the 2010 decennial Census
#> Loading SF1 variables for 2010 from table PCT020F. To cache this dataset for faster access to Census tables in the future, run this function with `cache_table = TRUE`. You only need to do this once per Census dataset.
#> Using FIPS code '53' for state 'WA'
#> Using FIPS code '033' for 'King County'
#> Using FIPS code '035' for 'Kitsap County'
#> Using FIPS code '053' for 'Pierce County'
#> Using FIPS code '061' for 'Snohomish County'
#> Using Census Summary File 1
#> # A tibble: 160 × 8
#>    GEOID NAME                         variable  value county  year label concept
#>    <chr> <chr>                        <chr>     <dbl> <chr>  <dbl> <chr> <chr>  
#>  1 53033 King County, Washington      PCT020F0…   972 53033   2010 Total GROUP …
#>  2 53035 Kitsap County, Washington    PCT020F0…   208 53035   2010 Total GROUP …
#>  3 53053 Pierce County, Washington    PCT020F0…   381 53053   2010 Total GROUP …
#>  4 53061 Snohomish County, Washington PCT020F0…   132 53061   2010 Total GROUP …
#>  5 53033 King County, Washington      PCT020F0…   233 53033   2010 Tota… GROUP …
#>  6 53035 Kitsap County, Washington    PCT020F0…     7 53035   2010 Tota… GROUP …
#>  7 53053 Pierce County, Washington    PCT020F0…   208 53053   2010 Tota… GROUP …
#>  8 53061 Snohomish County, Washington PCT020F0…    52 53061   2010 Tota… GROUP …
#>  9 53033 King County, Washington      PCT020F0…   171 53033   2010 Tota… GROUP …
#> 10 53035 Kitsap County, Washington    PCT020F0…     2 53035   2010 Tota… GROUP …
#> # ℹ 150 more rows
…
#> Using FIPS code '53' for state 'WA'
#> Using FIPS code '033' for 'King County'
#> Using FIPS code '035' for 'Kitsap County'
#> Using FIPS code '053' for 'Pierce County'
#> Using FIPS code '061' for 'Snohomish County'
#> Using Census Summary File 1
#> Getting data from the 2010 decennial Census
#> Loading SF1 variables for 2010 from table PCT020F. To cache this dataset for faster access to Census tables in the future, run this function with `cache_table = TRUE`. You only need to do this once per Census dataset.
#> Using FIPS code '53' for state 'WA'
#> Using FIPS code '033' for 'King County'
#> Using FIPS code '035' for 'Kitsap County'
#> Using FIPS code '053' for 'Pierce County'
#> Using FIPS code '061' for 'Snohomish County'
#> Using Census Summary File 1
#> # A tibble: 24,832 × 8
#>    GEOID       NAME                    variable value county  year label concept
#>    <chr>       <chr>                   <chr>    <dbl> <chr>  <dbl> <chr> <chr>  
#>  1 53033000100 Census Tract 1, King C… PCT020F…     0 53033   2010 Total GROUP …
#>  2 53033000200 Census Tract 2, King C… PCT020F…     0 53033   2010 Total GROUP …
#>  3 53033000300 Census Tract 3, King C… PCT020F…     0 53033   2010 Total GROUP …
#>  4 53033000401 Census Tract 4.01, Kin… PCT020F…     0 53033   2010 Total GROUP …
#>  5 53033000402 Census Tract 4.02, Kin… PCT020F…     1 53033   2010 Total GROUP …
#>  6 53033000500 Census Tract 5, King C… PCT020F…     0 53033   2010 Total GROUP …
#>  7 53033000600 Census Tract 6, King C… PCT020F…     0 53033   2010 Total GROUP …
#>  8 53033000700 Census Tract 7, King C… PCT020F…     1 53033   2010 Total GROUP …
#>  9 53033000800 Census Tract 8, King C… PCT020F…     0 53033   2010 Total GROUP …
#> 10 53033000900 Census Tract 9, King C… PCT020F…     0 53033   2010 Total GROUP …
#> # ℹ 24,822 more rows

get_decennial_recs(geography = 'place',
                   table_codes = 'PCT013',
                   years = 2010,
                   fips = c("5363000", "5308850"))
#> Getting data from the 2010 decennial Census
#> Loading SF1 variables for 2010 from table PCT013. To cache this dataset for faster access to Census tables in the future, run this function with `cache_table = TRUE`. You only need to do this once per Census dataset.
#> Using FIPS code '53' for state 'WA'
#> Using Census Summary File 1
#> Using FIPS code '53' for state 'WA'
#> Using Census Summary File 1
#> # A tibble: 98 × 7
#>    GEOID   NAME                     variable   value  year label         concept
#>    <chr>   <chr>                    <chr>      <dbl> <dbl> <chr>         <chr>  
#>  1 5308850 Burien city, Washington  PCT013001  33013  2010 Total         SEX BY…
#>  2 5363000 Seattle city, Washington PCT013001 583735  2010 Total         SEX BY…
#>  3 5308850 Burien city, Washington  PCT013002  16612  2010 Total!!Male   SEX BY…
#>  4 5363000 Seattle city, Washington PCT013002 290243  2010 Total!!Male   SEX BY…
#>  5 5308850 Burien city, Washington  PCT013003   1140  2010 Total!!Male!… SEX BY…
#>  6 5363000 Seattle city, Washington PCT013003  16424  2010 Total!!Male!… SEX BY…
#>  7 5308850 Burien city, Washington  PCT013004   1065  2010 Total!!Male!… SEX BY…
#>  8 5363000 Seattle city, Washington PCT013004  12919  2010 Total!!Male!… SEX BY…
#>  9 5308850 Burien city, Washington  PCT013005    947  2010 Total!!Male!… SEX BY…
#> 10 5363000 Seattle city, Washington PCT013005  10989  2010 Total!!Male!… SEX BY…
#> # ℹ 88 more rows
…
#> Using FIPS code '53' for state 'WA'
#> Using FIPS code '033' for 'King County'
#> Using FIPS code '035' for 'Kitsap County'
#> Using FIPS code '053' for 'Pierce County'
#> Using FIPS code '061' for 'Snohomish County'
#> Using Census Summary File 1
#> Getting data from the 2010 decennial Census
#> Loading SF1 variables for 2010 from table H006. To cache this dataset for faster access to Census tables in the future, run this function with `cache_table = TRUE`. You only need to do this once per Census dataset.
#> Using FIPS code '53' for state 'WA'
#> Using FIPS code '033' for 'King County'
#> Using FIPS code '035' for 'Kitsap County'
#> Using FIPS code '053' for 'Pierce County'
#> Using FIPS code '061' for 'Snohomish County'
#> Using Census Summary File 1
#> # A tibble: 21,176 × 8
#>    GEOID        NAME                   variable value county  year label concept
#>    <chr>        <chr>                  <chr>    <dbl> <chr>  <dbl> <chr> <chr>  
#>  1 530330001001 Block Group 1, Census… H006001    528 53033   2010 Total RACE O…
#>  2 530330001002 Block Group 2, Census… H006001    591 53033   2010 Total RACE O…
#>  3 530330001003 Block Group 3, Census… H006001    691 53033   2010 Total RACE O…
#>  4 530330001004 Block Group 4, Census… H006001    769 53033   2010 Total RACE O…
#>  5 530330001005 Block Group 5, Census… H006001    567 53033   2010 Total RACE O…
#>  6 530330002001 Block Group 1, Census… H006001    429 53033   2010 Total RACE O…
#>  7 530330002002 Block Group 2, Census… H006001    552 53033   2010 Total RACE O…
#>  8 530330002003 Block Group 3, Census… H006001    781 53033   2010 Total RACE O…
#>  9 530330002004 Block Group 4, Census… H006001    541 53033   2010 Total RACE O…
#> 10 530330002005 Block Group 5, Census… H006001    669 53033   2010 Total RACE O…
#> # ℹ 21,166 more rows

get_decennial_recs(geography="tract",
                   variables="DP1_0092C",
                   years=2020, sumfile="dp")
#> Getting data from the 2020 decennial Census
#> Using FIPS code '53' for state 'WA'
#> Using FIPS code '033' for 'King County'
#> Using FIPS code '035' for 'Kitsap County'
#> Using FIPS code '053' for 'Pierce County'
#> Using FIPS code '061' for 'Snohomish County'
#> Using the Demographic Profile
#> # A tibble: 923 × 8
#>    GEOID       NAME                    variable value county  year label concept
#>    <chr>       <chr>                   <chr>    <dbl> <chr>  <dbl> <chr> <chr>  
#>  1 53033000101 Census Tract 1.01; Kin… DP1_009…  3759 53033   2020 Coun… PROFIL…
#>  2 53033000102 Census Tract 1.02; Kin… DP1_009…  4321 53033   2020 Coun… PROFIL…
#>  3 53033000201 Census Tract 2.01; Kin… DP1_009…  4416 53033   2020 Coun… PROFIL…
#>  4 53033000202 Census Tract 2.02; Kin… DP1_009…  4099 53033   2020 Coun… PROFIL…
#>  5 53033000300 Census Tract 3; King C… DP1_009…  2820 53033   2020 Coun… PROFIL…
#>  6 53033000402 Census Tract 4.02; Kin… DP1_009…  5174 53033   2020 Coun… PROFIL…
#>  7 53033000403 Census Tract 4.03; Kin… DP1_009…  3074 53033   2020 Coun… PROFIL…
#>  8 53033000404 Census Tract 4.04; Kin… DP1_009…  4067 53033   2020 Coun… PROFIL…
#>  9 53033000500 Census Tract 5; King C… DP1_009…  3400 53033   2020 Coun… PROFIL…
#> 10 53033000601 Census Tract 6.01; Kin… DP1_009…  4074 53033   2020 Coun… PROFIL…
#> # ℹ 913 more rows
…
